url,http://accdev.silverdisc.co.uk/animals-and-birds/chilling-out.html,http://accdev.silverdisc.co.uk/card/chilling-out,301
url,https://www.admiralcharitycards.org/animals-and-birds/chilling-out.html,https://www.admiralcharitycards.org/card/chilling-out,301
url,https://www.admiralcharitycards.org/animals-and-birds/christmas-robin-on-a-post.html,https://www.admiralcharitycards.org/card/christmas-robin-post,301
url,https://www.admiralcharitycards.org/animals-and-birds/dancing-cranes.html,https://www.admiralcharitycards.org/card/dancing-cranes,301
url,https://www.admiralcharitycards.org/animals-and-birds/festive-robin.html,https://www.admiralcharitycards.org/card/festive-robin,301
url,https://www.admiralcharitycards.org/animals-and-birds/highland-cattle.html,https://www.admiralcharitycards.org/card/highland-cattle,301
url,https://www.admiralcharitycards.org/animals-and-birds/pheasant-in-the-snow.html,https://www.admiralcharitycards.org/card/pheasant-snow,301
url,https://www.admiralcharitycards.org/animals-and-birds/robin-on-a-snowman.html,https://www.admiralcharitycards.org/card/robin-snowman,301
url,https://www.admiralcharitycards.org/animals-and-birds/snow-leopard.html,https://www.admiralcharitycards.org/card/snow-leopard,301
url,https://www.admiralcharitycards.org/animals-and-birds/tiger-companions.html,https://www.admiralcharitycards.org/card/tiger-companions,301
url,https://www.admiralcharitycards.org/animals-and-birds/white-tailed-doe-in-snow.html,https://www.admiralcharitycards.org/card/white-tailed-doe-snow,301
url,https://www.admiralcharitycards.org/animals-and-birds/winter-robin.html,https://www.admiralcharitycards.org/card/winter-robin,301
url,https://www.admiralcharitycards.org/christmas-theme/12-days.html,https://www.admiralcharitycards.org/card/12-days,301
url,https://www.admiralcharitycards.org/christmas-theme/baubles-in-silver-and-gold.html,https://www.admiralcharitycards.org/card/baubles-silver-and-gold,301
url,https://www.admiralcharitycards.org/christmas-theme/christmas-antics.html,https://www.admiralcharitycards.org/card/christmas-antics,301
url,https://www.admiralcharitycards.org/christmas-theme/christmas-spirit.html,https://www.admiralcharitycards.org/card/christmas-spirit,301
url,https://www.admiralcharitycards.org/christmas-theme/church-choir.html,https://www.admiralcharitycards.org/card/church-choir,301
url,https://www.admiralcharitycards.org/christmas-theme/festive-baubles.html,https://www.admiralcharitycards.org/card/festive-baubles,301
url,https://www.admiralcharitycards.org/christmas-theme/morning-walk.html,https://www.admiralcharitycards.org/card/morning-walk,301
url,https://www.admiralcharitycards.org/christmas-theme/rudolph-s-journey.html,https://www.admiralcharitycards.org/card/rudolphs-journey,301
url,https://www.admiralcharitycards.org/christmas-theme/shopping-for-christmas.html,https://www.admiralcharitycards.org/card/shopping-christmas,301
url,https://www.admiralcharitycards.org/christmas-theme/three-ships.html,https://www.admiralcharitycards.org/card/three-ships,301
url,https://www.admiralcharitycards.org/fine-art-religious/angelic-beauty.html,https://www.admiralcharitycards.org/card/angelic-beauty,301
url,https://www.admiralcharitycards.org/fine-art-religious/angels.html,https://www.admiralcharitycards.org/card/angels,301
url,https://www.admiralcharitycards.org/fine-art-religious/birds-in-winter.html,https://www.admiralcharitycards.org/card/birds-winter,301
url,https://www.admiralcharitycards.org/fine-art-religious/christmas-shopping.html,https://www.admiralcharitycards.org/card/christmas-shopping,301
url,https://www.admiralcharitycards.org/fine-art-religious/coronation-of-the-virgin.html,https://www.admiralcharitycards.org/card/coronation-virgin,301
url,https://www.admiralcharitycards.org/fine-art-religious/feeding-birds-in-the-snow-1926.html,https://www.admiralcharitycards.org/card/feeding-birds-snow-1926,301
url,https://www.admiralcharitycards.org/fine-art-religious/first-snow.html,https://www.admiralcharitycards.org/card/first-snow,301
url,https://www.admiralcharitycards.org/fine-art-religious/hunters-in-the-snow.html,https://www.admiralcharitycards.org/card/hunters-snow,301
url,https://www.admiralcharitycards.org/fine-art-religious/mary-and-child.html,https://www.admiralcharitycards.org/card/mary-and-child,301
url,https://www.admiralcharitycards.org/fine-art-religious/song-of-the-angels-9076.html,https://www.admiralcharitycards.org/card/song-angels,301
url,https://www.admiralcharitycards.org/fine-art-religious/starry-night-over-the-rhone.html,https://www.admiralcharitycards.org/card/starry-night-over-rhone,301
url,https://www.admiralcharitycards.org/fine-art-religious/the-adoration-of-the-shepherds.html,https://www.admiralcharitycards.org/card/adoration-shepherds,301
url,https://www.admiralcharitycards.org/fine-art-religious/the-annunciation.html,https://www.admiralcharitycards.org/card/annunciation,301
url,https://www.admiralcharitycards.org/fine-art-religious/the-christmas-tree.html,https://www.admiralcharitycards.org/card/christmas-tree,301
url,https://www.admiralcharitycards.org/fine-art-religious/the-nativity-at-night.html,https://www.admiralcharitycards.org/card/nativity-night,301
url,https://www.admiralcharitycards.org/fine-art-religious/the-skaters.html,https://www.admiralcharitycards.org/card/skaters,301
url,https://www.admiralcharitycards.org/fine-art-religious/the-snow-queen.html,https://www.admiralcharitycards.org/card/snow-queen,301
url,https://www.admiralcharitycards.org/fine-art-religious/three-wise-men.html,https://www.admiralcharitycards.org/card/three-wise-men,301
url,https://www.admiralcharitycards.org/fine-art-religious/virgin-and-child.html,https://www.admiralcharitycards.org/card/virgin-and-child,301
url,https://www.admiralcharitycards.org/fine-art-religious/winter-morning.html,https://www.admiralcharitycards.org/card/winter-morning,301
url,https://www.admiralcharitycards.org/fine-art-religious/winters-day.html,https://www.admiralcharitycards.org/card/winters-day,301
url,https://www.admiralcharitycards.org/international/baubles-of-the-world.html,https://www.admiralcharitycards.org/card/baubles-world,301
url,https://www.admiralcharitycards.org/international/global-bauble.html,https://www.admiralcharitycards.org/card/global-bauble,301
url,https://www.admiralcharitycards.org/international/golden-sparkle.html,https://www.admiralcharitycards.org/card/golden-sparkle,301
url,https://www.admiralcharitycards.org/international/greetings-of-the-world.html,https://www.admiralcharitycards.org/card/greetings-world,301
url,https://www.admiralcharitycards.org/international/international-greetings-1.html,https://www.admiralcharitycards.org/card/international-greetings,301
url,https://www.admiralcharitycards.org/international/international-star.html,https://www.admiralcharitycards.org/card/international-star,301
url,https://www.admiralcharitycards.org/international/international-tree.html,https://www.admiralcharitycards.org/card/international-tree,301
url,https://www.admiralcharitycards.org/international/light-of-the-world.html,https://www.admiralcharitycards.org/card/light-world,301
url,https://www.admiralcharitycards.org/international/santa-s-waistcoat.html,https://www.admiralcharitycards.org/card/santas-waistcoat,301
url,https://www.admiralcharitycards.org/international/tree-of-nations.html,https://www.admiralcharitycards.org/card/tree-nations,301
url,https://www.admiralcharitycards.org/international/tree-of-unity.html,https://www.admiralcharitycards.org/card/tree-unity,301
url,https://www.admiralcharitycards.org/international/universal-tree.html,https://www.admiralcharitycards.org/card/universal-tree,301
url,https://www.admiralcharitycards.org/international/winter-globes.html,https://www.admiralcharitycards.org/card/winter-globes,301
url,https://www.admiralcharitycards.org/international/worldwide-greetings.html,https://www.admiralcharitycards.org/card/worldwide-greetings,301
url,https://www.admiralcharitycards.org/london-scenes/big-ben-and-the-houses-of-parliament.html,https://www.admiralcharitycards.org/card/big-ben-and-houses-parliament,301
url,https://www.admiralcharitycards.org/london-scenes/big-ben-at-midnight.html,https://www.admiralcharitycards.org/card/big-ben-midnight,301
url,https://www.admiralcharitycards.org/london-scenes/christmas-eve-at-trafalgar-square.html,https://www.admiralcharitycards.org/card/christmas-eve-trafalgar-square,301
url,https://www.admiralcharitycards.org/london-scenes/fireworks-over-thames.html,https://www.admiralcharitycards.org/card/fireworks-over-thames,301
url,https://www.admiralcharitycards.org/london-scenes/happy-new-year.html,https://www.admiralcharitycards.org/card/happy-new-year,301
url,https://www.admiralcharitycards.org/london-scenes/london-eye-at-night.html,https://www.admiralcharitycards.org/card/london-eye-night,301
url,https://www.admiralcharitycards.org/london-scenes/london-landmarks.html,https://www.admiralcharitycards.org/card/london-landmarks,301
url,https://www.admiralcharitycards.org/london-scenes/london-view.html,https://www.admiralcharitycards.org/card/london-view,301
url,https://www.admiralcharitycards.org/london-scenes/shopping-in-city.html,https://www.admiralcharitycards.org/card/shopping-city,301
url,https://www.admiralcharitycards.org/london-scenes/st-paul-s-cathedral.html,https://www.admiralcharitycards.org/card/st-pauls-cathedral,301
url,https://www.admiralcharitycards.org/london-scenes/st-paul-s-in-snow.html,https://www.admiralcharitycards.org/card/st-paul’s-snow,301
url,https://www.admiralcharitycards.org/london-scenes/the-london-eye.html,https://www.admiralcharitycards.org/card/london-eye,301
url,https://www.admiralcharitycards.org/london-scenes/the-queen-s-guards-buckingham-palace.html,https://www.admiralcharitycards.org/card/queens-guards-buckingham-palace,301
url,https://www.admiralcharitycards.org/london-scenes/tower-bridge-and-the-shard.html,https://www.admiralcharitycards.org/card/tower-bridge-and-shard,301
url,https://www.admiralcharitycards.org/london-scenes/tower-bridge-at-night.html,https://www.admiralcharitycards.org/card/tower-bridge-night,301
url,https://www.admiralcharitycards.org/london-scenes/westminster-abbey.html,https://www.admiralcharitycards.org/card/westminster-abbey,301
url,https://www.admiralcharitycards.org/london-scenes/westminster-bridge-at-night.html,https://www.admiralcharitycards.org/card/westminster-bridge-night,301
url,https://www.admiralcharitycards.org/photography/aurora-borealis.html,https://www.admiralcharitycards.org/card/aurora-borealis,301
url,https://www.admiralcharitycards.org/photography/cold-and-frosty-morning.html,https://www.admiralcharitycards.org/card/cold-and-frosty-morning,301
url,https://www.admiralcharitycards.org/photography/crisp-and-clear.html,https://www.admiralcharitycards.org/card/crisp-and-clear,301
url,https://www.admiralcharitycards.org/photography/frosted-bauble-1.html,https://www.admiralcharitycards.org/card/frosted-bauble,301
url,https://www.admiralcharitycards.org/photography/frosted-holly.html,https://www.admiralcharitycards.org/card/frosted-holly,301
url,https://www.admiralcharitycards.org/photography/frosted-stem.html,https://www.admiralcharitycards.org/card/frosted-stem,301
url,https://www.admiralcharitycards.org/photography/frosty-tree.html,https://www.admiralcharitycards.org/card/frosty-tree,301
url,https://www.admiralcharitycards.org/photography/purple-baubles.html,https://www.admiralcharitycards.org/card/purple-baubles,301
url,https://www.admiralcharitycards.org/photography/snowflake.html,https://www.admiralcharitycards.org/card/snowflake,301
url,https://www.admiralcharitycards.org/photography/under-the-mistletoe.html,https://www.admiralcharitycards.org/card/under-mistletoe,301
url,https://www.admiralcharitycards.org/trees/christmas-tree-with-a-twist.html,https://www.admiralcharitycards.org/card/christmas-tree-twist,301
url,https://www.admiralcharitycards.org/trees/crimson-christmas.html,https://www.admiralcharitycards.org/card/crimson-christmas,301
url,https://www.admiralcharitycards.org/trees/fluorescent-tree.html,https://www.admiralcharitycards.org/card/fluorescent-tree,301
url,https://www.admiralcharitycards.org/trees/glowing-tree.html,https://www.admiralcharitycards.org/card/glowing-tree,301
url,https://www.admiralcharitycards.org/trees/golden-tree.html,https://www.admiralcharitycards.org/card/golden-tree,301
url,https://www.admiralcharitycards.org/trees/illuminating-tree.html,https://www.admiralcharitycards.org/card/illuminating-tree,301
url,https://www.admiralcharitycards.org/trees/multi-coloured-trees.html,https://www.admiralcharitycards.org/card/multi-coloured-trees,301
url,https://www.admiralcharitycards.org/trees/snowy-christmas-trees.html,https://www.admiralcharitycards.org/card/snowy-christmas-trees,301
url,https://www.admiralcharitycards.org/trees/spiral-fir.html,https://www.admiralcharitycards.org/card/spiral-fir,301
url,https://www.admiralcharitycards.org/trees/splash-of-colour.html,https://www.admiralcharitycards.org/card/splash-colour,301
url,https://www.admiralcharitycards.org/trees/three-trees.html,https://www.admiralcharitycards.org/card/three-trees,301
url,https://www.admiralcharitycards.org/trees/twinkling-twilight.html,https://www.admiralcharitycards.org/card/twinkling-twilight,301
url,https://www.admiralcharitycards.org/whole-collection/12-days.html,https://www.admiralcharitycards.org/card/12-days,301
url,https://www.admiralcharitycards.org/whole-collection/angelic-beauty.html,https://www.admiralcharitycards.org/card/angelic-beauty,301
url,https://www.admiralcharitycards.org/whole-collection/angels.html,https://www.admiralcharitycards.org/card/angels,301
url,https://www.admiralcharitycards.org/whole-collection/aurora-borealis.html,https://www.admiralcharitycards.org/card/aurora-borealis,301
url,https://www.admiralcharitycards.org/whole-collection/baubles-in-silver-and-gold.html,https://www.admiralcharitycards.org/card/baubles-silver-and-gold,301
url,https://www.admiralcharitycards.org/whole-collection/baubles-of-the-world.html,https://www.admiralcharitycards.org/card/baubles-world,301
url,https://www.admiralcharitycards.org/whole-collection/big-ben-and-the-houses-of-parliament.html,https://www.admiralcharitycards.org/card/big-ben-and-houses-parliament,301
url,https://www.admiralcharitycards.org/whole-collection/big-ben-at-midnight.html,https://www.admiralcharitycards.org/card/big-ben-midnight,301
url,https://www.admiralcharitycards.org/whole-collection/birds-in-winter.html,https://www.admiralcharitycards.org/card/birds-winter,301
url,https://www.admiralcharitycards.org/whole-collection/chilling-out.html,https://www.admiralcharitycards.org/card/chilling-out,301
url,https://www.admiralcharitycards.org/whole-collection/christmas-antics.html,https://www.admiralcharitycards.org/card/christmas-antics,301
url,https://www.admiralcharitycards.org/whole-collection/christmas-eve-at-trafalgar-square.html,https://www.admiralcharitycards.org/card/christmas-eve-trafalgar-square,301
url,https://www.admiralcharitycards.org/whole-collection/christmas-robin-on-a-post.html,https://www.admiralcharitycards.org/card/christmas-robin-post,301
url,https://www.admiralcharitycards.org/whole-collection/christmas-shopping.html,https://www.admiralcharitycards.org/card/christmas-shopping,301
url,https://www.admiralcharitycards.org/whole-collection/christmas-spirit.html,https://www.admiralcharitycards.org/card/christmas-spirit,301
url,https://www.admiralcharitycards.org/whole-collection/christmas-tree-with-a-twist.html,https://www.admiralcharitycards.org/card/christmas-tree-twist,301
url,https://www.admiralcharitycards.org/whole-collection/church-choir.html,https://www.admiralcharitycards.org/card/church-choir,301
url,https://www.admiralcharitycards.org/whole-collection/cold-and-frosty-morning.html,https://www.admiralcharitycards.org/card/cold-and-frosty-morning,301
url,https://www.admiralcharitycards.org/whole-collection/coronation-of-the-virgin.html,https://www.admiralcharitycards.org/card/coronation-virgin,301
url,https://www.admiralcharitycards.org/whole-collection/crimson-christmas.html,https://www.admiralcharitycards.org/card/crimson-christmas,301
url,https://www.admiralcharitycards.org/whole-collection/crisp-and-clear.html,https://www.admiralcharitycards.org/card/crisp-and-clear,301
url,https://www.admiralcharitycards.org/whole-collection/dancing-cranes.html,https://www.admiralcharitycards.org/card/dancing-cranes,301
url,https://www.admiralcharitycards.org/whole-collection/feeding-birds-in-the-snow-1926.html,https://www.admiralcharitycards.org/card/feeding-birds-snow-1926,301
url,https://www.admiralcharitycards.org/whole-collection/festive-baubles.html,https://www.admiralcharitycards.org/card/festive-baubles,301
url,https://www.admiralcharitycards.org/whole-collection/festive-robin.html,https://www.admiralcharitycards.org/card/festive-robin,301
url,https://www.admiralcharitycards.org/whole-collection/fireworks-over-thames.html,https://www.admiralcharitycards.org/card/fireworks-over-thames,301
url,https://www.admiralcharitycards.org/whole-collection/first-snow.html,https://www.admiralcharitycards.org/card/first-snow,301
url,https://www.admiralcharitycards.org/whole-collection/fluorescent-tree.html,https://www.admiralcharitycards.org/card/fluorescent-tree,301
url,https://www.admiralcharitycards.org/whole-collection/frosted-bauble-1.html,https://www.admiralcharitycards.org/card/frosted-bauble,301
url,https://www.admiralcharitycards.org/whole-collection/frosted-holly.html,https://www.admiralcharitycards.org/card/frosted-holly,301
url,https://www.admiralcharitycards.org/whole-collection/frosted-stem.html,https://www.admiralcharitycards.org/card/frosted-stem,301
url,https://www.admiralcharitycards.org/whole-collection/frosty-tree.html,https://www.admiralcharitycards.org/card/frosty-tree,301
url,https://www.admiralcharitycards.org/whole-collection/global-bauble.html,https://www.admiralcharitycards.org/card/global-bauble,301
url,https://www.admiralcharitycards.org/whole-collection/glowing-tree.html,https://www.admiralcharitycards.org/card/glowing-tree,301
url,https://www.admiralcharitycards.org/whole-collection/golden-sparkle.html,https://www.admiralcharitycards.org/card/golden-sparkle,301
url,https://www.admiralcharitycards.org/whole-collection/golden-tree.html,https://www.admiralcharitycards.org/card/greetings-world,301
url,https://www.admiralcharitycards.org/whole-collection/greetings-of-the-world.html,https://www.admiralcharitycards.org/card/golden-tree,301
url,https://www.admiralcharitycards.org/whole-collection/happy-new-year.html,https://www.admiralcharitycards.org/card/happy-new-year,301
url,https://www.admiralcharitycards.org/whole-collection/highland-cattle.html,https://www.admiralcharitycards.org/card/highland-cattle,301
url,https://www.admiralcharitycards.org/whole-collection/hunters-in-the-snow.html,https://www.admiralcharitycards.org/card/hunters-snow,301
url,https://www.admiralcharitycards.org/whole-collection/illuminating-tree.html,https://www.admiralcharitycards.org/card/illuminating-tree,301
url,https://www.admiralcharitycards.org/whole-collection/international-greetings-1.html,https://www.admiralcharitycards.org/card/international-greetings,301
url,https://www.admiralcharitycards.org/whole-collection/international-star.html,https://www.admiralcharitycards.org/card/international-star,301
url,https://www.admiralcharitycards.org/whole-collection/international-tree.html,https://www.admiralcharitycards.org/card/international-tree,301
url,https://www.admiralcharitycards.org/whole-collection/light-of-the-world.html,https://www.admiralcharitycards.org/card/light-world,301
url,https://www.admiralcharitycards.org/whole-collection/london-eye-at-night.html,https://www.admiralcharitycards.org/card/london-eye-night,301
url,https://www.admiralcharitycards.org/whole-collection/london-landmarks.html,https://www.admiralcharitycards.org/card/london-landmarks,301
url,https://www.admiralcharitycards.org/whole-collection/london-view.html,https://www.admiralcharitycards.org/card/london-view,301
url,https://www.admiralcharitycards.org/whole-collection/mary-and-child.html,https://www.admiralcharitycards.org/card/mary-and-child,301
url,https://www.admiralcharitycards.org/whole-collection/morning-walk.html,https://www.admiralcharitycards.org/card/morning-walk,301
url,https://www.admiralcharitycards.org/whole-collection/multi-coloured-trees.html,https://www.admiralcharitycards.org/card/multi-coloured-trees,301
url,https://www.admiralcharitycards.org/whole-collection/pheasant-in-the-snow.html,https://www.admiralcharitycards.org/card/pheasant-snow,301
url,https://www.admiralcharitycards.org/whole-collection/purple-baubles.html,https://www.admiralcharitycards.org/card/purple-baubles,301
url,https://www.admiralcharitycards.org/whole-collection/robin-on-a-snowman.html,https://www.admiralcharitycards.org/card/robin-snowman,301
url,https://www.admiralcharitycards.org/whole-collection/rudolph-s-journey.html,https://www.admiralcharitycards.org/card/rudolphs-journey,301
url,https://www.admiralcharitycards.org/whole-collection/santa-s-waistcoat.html,https://www.admiralcharitycards.org/card/santas-waistcoat,301
url,https://www.admiralcharitycards.org/whole-collection/shopping-for-christmas.html,https://www.admiralcharitycards.org/card/shopping-christmas,301
url,https://www.admiralcharitycards.org/whole-collection/shopping-in-city.html,https://www.admiralcharitycards.org/card/shopping-city,301
url,https://www.admiralcharitycards.org/whole-collection/snow-leopard.html,https://www.admiralcharitycards.org/card/snow-leopard,301
url,https://www.admiralcharitycards.org/whole-collection/snowflake.html,https://www.admiralcharitycards.org/card/snowflake,301
url,https://www.admiralcharitycards.org/whole-collection/snowy-christmas-trees.html,https://www.admiralcharitycards.org/card/snowy-christmas-trees,301
url,https://www.admiralcharitycards.org/whole-collection/song-of-the-angels-9076.html,https://www.admiralcharitycards.org/card/spiral-fir,301
url,https://www.admiralcharitycards.org/whole-collection/spiral-fir.html,https://www.admiralcharitycards.org/card/splash-colour,301
url,https://www.admiralcharitycards.org/whole-collection/splash-of-colour.html,https://www.admiralcharitycards.org/card/splash-colour,301
url,https://www.admiralcharitycards.org/whole-collection/st-paul-s-cathedral.html,https://www.admiralcharitycards.org/card/st-pauls-cathedral,301
url,https://www.admiralcharitycards.org/whole-collection/st-paul-s-in-snow.html,https://www.admiralcharitycards.org/card/st-paul’s-snow,301
url,https://www.admiralcharitycards.org/whole-collection/starry-night-over-the-rhone.html,https://www.admiralcharitycards.org/card/starry-night-over-rhone,301
url,https://www.admiralcharitycards.org/whole-collection/the-adoration-of-the-shepherds.html,https://www.admiralcharitycards.org/card/adoration-shepherds,301
url,https://www.admiralcharitycards.org/whole-collection/the-annunciation.html,https://www.admiralcharitycards.org/card/annunciation,301
url,https://www.admiralcharitycards.org/whole-collection/the-christmas-tree.html,https://www.admiralcharitycards.org/card/christmas-tree,301
url,https://www.admiralcharitycards.org/whole-collection/the-london-eye.html,https://www.admiralcharitycards.org/card/london-eye,301
url,https://www.admiralcharitycards.org/whole-collection/the-nativity-at-night.html,https://www.admiralcharitycards.org/card/nativity-night,301
url,https://www.admiralcharitycards.org/whole-collection/the-queen-s-guards-buckingham-palace.html,https://www.admiralcharitycards.org/card/queens-guards-buckingham-palace,301
url,https://www.admiralcharitycards.org/whole-collection/the-skaters.html,https://www.admiralcharitycards.org/card/skaters,301
url,https://www.admiralcharitycards.org/whole-collection/the-snow-queen.html,https://www.admiralcharitycards.org/card/snow-queen,301
url,https://www.admiralcharitycards.org/whole-collection/three-ships.html,https://www.admiralcharitycards.org/card/three-ships,301
url,https://www.admiralcharitycards.org/whole-collection/three-trees.html,https://www.admiralcharitycards.org/card/three-trees,301
url,https://www.admiralcharitycards.org/whole-collection/three-wise-men.html,https://www.admiralcharitycards.org/card/three-wise-men,301
url,https://www.admiralcharitycards.org/whole-collection/tiger-companions.html,https://www.admiralcharitycards.org/card/tiger-companions,301
url,https://www.admiralcharitycards.org/whole-collection/tower-bridge-and-the-shard.html,https://www.admiralcharitycards.org/card/tower-bridge-and-shard,301
url,https://www.admiralcharitycards.org/whole-collection/tower-bridge-at-night.html,https://www.admiralcharitycards.org/card/tower-bridge-night,301
url,https://www.admiralcharitycards.org/whole-collection/tree-of-nations.html,https://www.admiralcharitycards.org/card/tree-nations,301
url,https://www.admiralcharitycards.org/whole-collection/tree-of-unity.html,https://www.admiralcharitycards.org/card/tree-unity,301
url,https://www.admiralcharitycards.org/whole-collection/twinkling-twilight.html,https://www.admiralcharitycards.org/card/twinkling-twilight,301
url,https://www.admiralcharitycards.org/whole-collection/under-the-mistletoe.html,https://www.admiralcharitycards.org/card/under-mistletoe,301
url,https://www.admiralcharitycards.org/whole-collection/universal-tree.html,https://www.admiralcharitycards.org/card/universal-tree,301
url,https://www.admiralcharitycards.org/whole-collection/virgin-and-child.html,https://www.admiralcharitycards.org/card/virgin-and-child,301
url,https://www.admiralcharitycards.org/whole-collection/westminster-abbey.html,https://www.admiralcharitycards.org/card/westminster-abbey,301
url,https://www.admiralcharitycards.org/whole-collection/westminster-bridge-at-night.html,https://www.admiralcharitycards.org/card/westminster-bridge-night,301
url,https://www.admiralcharitycards.org/whole-collection/white-tailed-doe-in-snow.html,https://www.admiralcharitycards.org/card/white-tailed-doe-snow,301
url,https://www.admiralcharitycards.org/whole-collection/winter-globes.html,https://www.admiralcharitycards.org/card/winter-globes,301
url,https://www.admiralcharitycards.org/whole-collection/winter-morning.html,https://www.admiralcharitycards.org/card/winter-morning,301
url,https://www.admiralcharitycards.org/whole-collection/winter-robin.html,https://www.admiralcharitycards.org/card/winter-robin,301
url,https://www.admiralcharitycards.org/whole-collection/winters-day.html,https://www.admiralcharitycards.org/card/winters-day,301
url,https://www.admiralcharitycards.org/whole-collection/worldwide-greetings.html,https://www.admiralcharitycards.org/card/worldwide-greetings,301
url,https://www.admiralcharitycards.org/animals-and-birds.html,https://www.admiralcharitycards.org/card-collections/animals-birds,301
url,https://www.admiralcharitycards.org/animals-and-birds.html?___store=default,https://www.admiralcharitycards.org/card-collections/animals-birds,301
url,https://www.admiralcharitycards.org/animals-and-birds.html?___store=default&orientation=6,https://www.admiralcharitycards.org/card-collections/animals-birds,301
url,https://www.admiralcharitycards.org/animals-and-birds.html?___store=default&orientation=7,https://www.admiralcharitycards.org/card-collections/animals-birds,301
url,https://www.admiralcharitycards.org/animals-and-birds.html?orientation=6,https://www.admiralcharitycards.org/card-collections/animals-birds,301
url,https://www.admiralcharitycards.org/animals-and-birds.html?orientation=7,https://www.admiralcharitycards.org/card-collections/animals-birds,301
url,https://www.admiralcharitycards.org/animals-and-birds.html/,https://www.admiralcharitycards.org/card-collections/animals-birds,301
url,https://www.admiralcharitycards.org/christmas-theme.html,https://www.admiralcharitycards.org/card-collections/christmas-themed,301
url,https://www.admiralcharitycards.org/christmas-theme.html?___store=default,https://www.admiralcharitycards.org/card-collections/christmas-themed,301
url,https://www.admiralcharitycards.org/christmas-theme.html?___store=default&orientation=6,https://www.admiralcharitycards.org/card-collections/christmas-themed,301
url,https://www.admiralcharitycards.org/christmas-theme.html?___store=default&orientation=7,https://www.admiralcharitycards.org/card-collections/christmas-themed,301
url,https://www.admiralcharitycards.org/christmas-theme.html?orientation=6,https://www.admiralcharitycards.org/card-collections/christmas-themed,301
url,https://www.admiralcharitycards.org/christmas-theme.html?orientation=7,https://www.admiralcharitycards.org/card-collections/christmas-themed,301
url,https://www.admiralcharitycards.org/christmas-theme.html/,https://www.admiralcharitycards.org/card-collections/christmas-themed,301
url,https://www.admiralcharitycards.org/fine-art-religious.html,https://www.admiralcharitycards.org/card-collections/fine-art-religious,301
url,https://www.admiralcharitycards.org/fine-art-religious.html?___store=default,https://www.admiralcharitycards.org/card-collections/fine-art-religious,301
url,https://www.admiralcharitycards.org/fine-art-religious.html?___store=default&orientation=6,https://www.admiralcharitycards.org/card-collections/fine-art-religious,301
url,https://www.admiralcharitycards.org/fine-art-religious.html?___store=default&orientation=7,https://www.admiralcharitycards.org/card-collections/fine-art-religious,301
url,https://www.admiralcharitycards.org/fine-art-religious.html?orientation=6,https://www.admiralcharitycards.org/card-collections/fine-art-religious,301
url,https://www.admiralcharitycards.org/fine-art-religious.html?orientation=7,https://www.admiralcharitycards.org/card-collections/fine-art-religious,301
url,https://www.admiralcharitycards.org/fine-art-religious.html/,https://www.admiralcharitycards.org/card-collections/fine-art-religious,301
url,https://www.admiralcharitycards.org/international.html,https://www.admiralcharitycards.org/card-collections/international,301
url,https://www.admiralcharitycards.org/international.html?___store=default,https://www.admiralcharitycards.org/card-collections/international,301
url,https://www.admiralcharitycards.org/international.html?___store=default&orientation=6,https://www.admiralcharitycards.org/card-collections/international,301
url,https://www.admiralcharitycards.org/international.html?___store=default&orientation=7,https://www.admiralcharitycards.org/card-collections/international,301
url,https://www.admiralcharitycards.org/international.html?orientation=6,https://www.admiralcharitycards.org/card-collections/international,301
url,https://www.admiralcharitycards.org/international.html?orientation=7,https://www.admiralcharitycards.org/card-collections/international,301
url,https://www.admiralcharitycards.org/international.html/,https://www.admiralcharitycards.org/card-collections/international,301
url,https://www.admiralcharitycards.org/london-scenes.html,https://www.admiralcharitycards.org/card-collections/london-scenes,301
url,https://www.admiralcharitycards.org/london-scenes.html?___store=default,https://www.admiralcharitycards.org/card-collections/london-scenes,301
url,https://www.admiralcharitycards.org/london-scenes.html?___store=default&orientation=6,https://www.admiralcharitycards.org/card-collections/london-scenes,301
url,https://www.admiralcharitycards.org/london-scenes.html?___store=default&orientation=7,https://www.admiralcharitycards.org/card-collections/london-scenes,301
url,https://www.admiralcharitycards.org/london-scenes.html?orientation=6,https://www.admiralcharitycards.org/card-collections/london-scenes,301
url,https://www.admiralcharitycards.org/london-scenes.html?orientation=7,https://www.admiralcharitycards.org/card-collections/london-scenes,301
url,https://www.admiralcharitycards.org/london-scenes.html/,https://www.admiralcharitycards.org/card-collections/london-scenes,301
url,https://www.admiralcharitycards.org/photography.html,https://www.admiralcharitycards.org/card-collections/photography,301
url,https://www.admiralcharitycards.org/photography.html?___store=default,https://www.admiralcharitycards.org/card-collections/photography,301
url,https://www.admiralcharitycards.org/photography.html?___store=default&orientation=6,https://www.admiralcharitycards.org/card-collections/photography,301
url,https://www.admiralcharitycards.org/photography.html?___store=default&orientation=7,https://www.admiralcharitycards.org/card-collections/photography,301
url,https://www.admiralcharitycards.org/photography.html?orientation=6,https://www.admiralcharitycards.org/card-collections/photography,301
url,https://www.admiralcharitycards.org/photography.html?orientation=7,https://www.admiralcharitycards.org/card-collections/photography,301
url,https://www.admiralcharitycards.org/photography.html/,https://www.admiralcharitycards.org/card-collections/photography,301
url,https://www.admiralcharitycards.org/trees.html,https://www.admiralcharitycards.org/card-collections/trees,301
url,https://www.admiralcharitycards.org/trees.html?___store=default,https://www.admiralcharitycards.org/card-collections/trees,301
url,https://www.admiralcharitycards.org/trees.html?___store=default&orientation=6,https://www.admiralcharitycards.org/card-collections/trees,301
url,https://www.admiralcharitycards.org/trees.html?___store=default&orientation=7,https://www.admiralcharitycards.org/card-collections/trees,301
url,https://www.admiralcharitycards.org/trees.html?orientation=6,https://www.admiralcharitycards.org/card-collections/trees,301
url,https://www.admiralcharitycards.org/trees.html?orientation=7,https://www.admiralcharitycards.org/card-collections/trees,301
url,https://www.admiralcharitycards.org/trees.html/,https://www.admiralcharitycards.org/card-collections/trees,301
url,https://www.admiralcharitycards.org/whole-collection.html,https://www.admiralcharitycards.org/cards,301
url,https://www.admiralcharitycards.org/whole-collection.html?orientation=6,https://www.admiralcharitycards.org/cards,301
url,https://www.admiralcharitycards.org/whole-collection.html?orientation=7,https://www.admiralcharitycards.org/cards,301
url,https://www.admiralcharitycards.org/whole-collection.html/,https://www.admiralcharitycards.org/cards,301
url,https://www.admiralcharitycards.org/bespoke-cards,https://www.admiralcharitycards.org/bespoke,301
url,https://www.admiralcharitycards.org/bespoke-cards/,https://www.admiralcharitycards.org/bespoke,301
url,https://www.admiralcharitycards.org/contacts,https://www.admiralcharitycards.org/contact-us,301
url,https://www.admiralcharitycards.org/delivery-charges,https://www.admiralcharitycards.org/delivery,301
url,https://www.admiralcharitycards.org/faqs,https://www.admiralcharitycards.org/faq,301
url,https://www.admiralcharitycards.org/privacy-policy,https://www.admiralcharitycards.org/privacy,301
url,https://www.admiralcharitycards.org/request-catalogue,https://www.admiralcharitycards.org/catalogue,301
url,https://www.admiralcharitycards.org/terms-of-use,https://www.admiralcharitycards.org/terms,301

